1 10 20
100 200 125
201 210 89
900 1000 174
6058 16047 276
2389 36097 324
32446 34498 311
2555 15668 276
36671 39523 306
37279 47984 314
5201 35254 311
24398 40885 324
29520 36813 324
20539 30520 308
39408 41748 306
33189 42910 324
26958 35801 324
4255 19356 279
40803 47778 314
14125 26440 282
20856 40442 324
20398 47281 324
6763 18190 279
35046 43802 324
46308 49201 314
181 44656 324
39193 43574 306
37049 44635 306
48642 49097 296
3028 31415 308
24837 26324 264
13717 20149 279
13259 35037 311
33698 49376 324
36193 39060 306
9689 38689 324
20958 27000 308
18093 30805 308
30969 42076 324
44271 46937 314
24298 46180 324
15921 21024 279
34163 47048 324
35755 35893 249
30004 42832 324
43084 48808 314
434 21188 279
6315 40081 324
23983 27372 308
23715 34576 311
23572 31025 308
27300 41277 324
27613 49040 324
6690 40861 324
45449 46644 283
19176 33153 308
23068 47951 324
16709 39868 324
25698 41382 324
47494 49189 296
12924 14494 276
19281 32419 308
46262 47085 283
10284 26878 308
15852 48679 324
9100 23460 279
3724 21997 279
34365 46022 324
17649 42688 324
17159 34936 311
12655 37357 324
22822 42922 324
49050 49696 296
10322 41669 324
1903 24901 282
47820 47877 190
16686 38121 324
17334 25123 282
34188 37419 324
11664 20558 279
49806 49944 265
41868 44503 288
45049 47769 314
36430 42641 306
28680 46997 324
13 32540 308
17363 35270 311
35758 37386 262
6682 7936 257
14571 43299 324
36510 44405 306
40689 41859 288
30770 41821 324
23721 30570 308
23902 34775 311
10655 12144 268
9269 21570 279
21802 42999 324
18438 25691 282
34797 37533 324
42002 48729 314
34714 49809 324
44368 46546 314
23218 24122 282
25076 44821 324
27645 44384 324
5143 36350 324
13202 35523 311
25705 34623 311
45717 49737 314
16147 25530 282
3878 11462 268
9212 20331 279
30264 40739 324
19989 46533 324
12056 23299 279
25824 42955 324
26513 49802 324
39421 49559 314
17684 41153 324
2712 32409 308
9920 22251 279
44534 46596 314
10675 35756 324
26666 27920 259
12648 31669 308
24828 49227 324
24770 25780 264
31817 41242 324
41633 46637 314
8768 37340 324
34175 45678 324
704 15890 276
29258 46997 324
943 39816 324
9289 29492 308
12117 18594 279
44232 45198 314
47361 48728 283
16188 33450 308
16960 45089 324
33699 41092 324
27452 34800 311
42602 46327 314
18802 48440 324
41362 43833 288
48100 49952 296
48904 49957 296
39767 39860 275
43771 45563 314
37303 37590 306
9115 10638 260
29304 39588 324
45439 49340 314
3123 47214 324
32189 34579 311
17879 22442 274
48735 49366 296
30460 39204 324
569 4504 238
35746 47382 314
5738 6354 262
17822 31903 308
12337 48313 324
35304 45574 324
14681 40479 324
21225 49850 324
43496 44935 270
33172 37789 324
43449 48078 314
41335 41819 257
18531 22995 274
32042 42683 324
6635 23803 282
27589 46588 324
400 7640 262
46900 49520 314
44452 45972 314
27030 29036 259
4994 38249 324
12249 41977 324
14368 42562 324
8448 38709 324
12724 14098 276
32351 32435 267
29804 35294 311
46556 47025 252
3007 29985 308
29779 41572 324
35768 40838 306
20190 49850 324
44163 46914 314
5056 11103 268
7481 31477 308
40818 43089 288
43808 49826 314
40306 46065 314
37189 49963 314
11803 36241 324
2365 29257 308
38167 44997 306
18500 36954 324
43761 46063 314
39389 49486 314
