266067 611822 470
610540 255286 470
511947 381127 470
188486 742003 509
137366 669759 509
515634 287352 470
698360 5028 509
53417 9918 340
573056 757680 509
810916 940360 525
180896 186396 334
952404 210069 525
96731 281868 443
441305 612547 470
545775 374720 470
750525 998302 525
619153 453427 470
36794 150634 375
924543 444509 525
813094 635320 504
330900 211261 443
415895 925204 525
4312 991595 525
652574 834782 504
928509 315875 525
65526 504624 449
447741 869068 525
425081 956576 525
296379 615316 470
760621 996009 525
216815 326651 443
586029 116079 470
939678 808358 525
918455 942596 507
951974 928142 507
879375 595593 525
647631 978668 525
739322 638737 504
532209 638385 509
792498 662945 504
300776 114240 443
4596 688166 509
218004 183991 386
196932 51633 383
694343 783094 504
169973 694372 509
975049 830006 525
959521 386737 525
347890 684228 509
506984 547982 470
356339 644534 509
852817 474802 525
856274 868740 388
480690 684389 509
350370 874731 525
288944 481241 449
470027 765271 509
538682 929138 525
67958 582785 470
261013 147904 443
655395 333052 509
809024 833515 450
651119 750929 504
541743 688017 509
62752 857908 525
795540 615967 509
337945 897008 525
502873 712118 509
528573 901385 525
918131 494400 525
962414 463388 525
390313 421768 449
382808 407397 436
547332 386935 470
834196 162536 509
185458 229077 386
746691 46430 509
891527 615835 525
49922 770519 509
919024 913209 383
456972 566020 470
16058 838467 525
293217 683014 509
843724 942290 507
560515 995848 525
599181 930946 525
746842 88749 509
168666 934622 525
175294 782276 509
736018 271321 509
477032 669910 509
863930 750191 525
795309 503365 509
462087 788315 509
275751 307075 389
990962 85545 525
943115 889775 507
681869 679710 367
346641 918357 525
653379 934066 525
294342 599761 470
507826 965620 525
81808 401202 443
143638 268315 443
209722 55523 383
70878 267694 443
656663 80091 509
487535 475193 413
623622 695852 509
918297 778230 525
779994 266253 509
543342 830613 509
857382 448360 525
46179 819464 509
256181 382645 441
722841 209188 509
648255 441383 509
732191 793372 468
62336 298006 443
42752 411967 449
64448 927607 525
955807 117198 525
435327 598564 470
563458 545984 452
734976 302470 509
133585 97339 354
168274 633170 509
607310 226514 470
945670 490585 525
736951 380365 509
283442 426917 449
281567 807425 509
919622 580508 525
818669 529637 509
88299 585660 470
279364 166755 443
189320 661019 509
422729 202218 449
335792 432402 449
694801 466312 509
746345 177341 509
919338 326483 525
934510 807505 525
104815 48589 351
470668 72962 449
813535 603630 509
606664 44054 470
740475 691868 504
720174 479621 509
52055 361125 443
449907 61442 449
575495 691431 509
821896 66768 509
780271 503187 509
92840 329060 443
877722 605897 525
573318 915235 525
806461 869399 525
894035 794436 525
365746 222177 443
121700 226556 386
245216 335951 407
3119 308939 443
595080 74972 470
304122 811209 509
900721 532044 525
911045 351229 525
280521 999428 525
519887 822681 509
653970 527664 509
555126 397152 470
71668 451434 449
583151 922177 525
913108 485761 525
844272 661168 525
410482 146324 449
834596 25364 509
318697 67362 443
843918 66201 525
754642 612129 509
633584 402879 509
885170 205562 525
249994 153720 443
836076 646393 504
908030 512748 525
191275 896964 525
892871 830198 525
443457 542433 470
637931 508793 509
960743 689783 525
534463 339852 470
714288 537400 509
486380 960478 525
256627 82801 443
257294 46920 443
381653 887688 525
184604 592607 470
369844 174170 443
563583 149176 470
496165 229348 449
6280 78321 351
265960 293565 407
902923 208265 525
932884 819477 525
308931 279406 389
8748 991590 525
573587 535208 452
598641 978951 525
416495 714714 509
317284 978273 525
861599 722490 525
622449 146120 470
333077 736262 509
755162 517405 509
396009 38052 443
865396 593088 525
479032 2984 449
59563 954064 525
423602 674782 509
440670 944417 525
546305 302454 470
815040 718748 468
300637 71642 443
761810 925381 525
23140 14028 279
814621 803854 406
503702 13722 449
523833 274655 470
773819 680523 504
937637 868114 476
467666 321043 449
886089 146196 525
623605 893337 525
702805 250529 509
17706 281503 443
10666 371384 443
248753 641680 509
867046 698116 525
191403 727364 509
138124 594271 470
994119 255406 525
555810 724237 509
514589 466014 470
313367 43907 443
812411 765984 468
855466 408131 525
463195 298486 449
288161 101658 443
382692 741663 509
